<svg width="49" height="50" viewBox="0 0 49 50" fill="none" xmlns="http://www.w3.org/2000/svg">
<path d="M17.9018 38.1772C17.9018 38.1772 12.103 44.5761 9.60121 46.4442L7.56516 44.5181C11.1202 43.3515 18.4168 34.1878 19.1304 33.0669C19.7013 32.1702 26.524 32.2907 29.864 32.463C29.2831 31.2552 23.9869 30.5629 21.4114 30.3677C23.6432 28.1293 26.6763 20.7056 27.8734 18.0502C26.3794 20.3388 21.9956 26.1865 19.5715 29.3703C19.3984 27.522 17.6599 22.8906 16.8123 20.8059C17.5073 24.0963 17.3833 29.5091 17.2345 31.8042C16.8573 33.1035 14.7224 35.3376 13.7022 36.2923C7.41506 34.2939 5.00779 28.9814 4.59005 26.575C6.30658 26.9886 9.66972 26.8419 11.1367 26.7168C5.31269 20.74 5.35188 16.8973 6.09948 15.7231C7.13922 15.5035 8.94845 16.7845 9.72309 17.4524C9.22991 15.1173 9.62008 9.25097 9.87681 6.60968C11.259 6.983 13.7314 9.86098 14.7948 11.2533C14.9273 10.3383 16.1906 8.64861 16.8056 7.91813C18.3896 9.24671 20.073 14.3887 20.7167 16.7936C22.5189 9.89911 23.5306 9.54684 25.0318 7.01229C25.8268 7.17699 28.0284 9.84422 29.0298 11.1572C29.9555 8.85511 34.0113 7.10228 35.9234 6.51363C36.3799 9.18909 35.1244 13.6583 34.4396 15.5584C36.831 15.0533 39.0155 16.4399 39.8088 17.1963C38.5569 20.0108 34.2546 23.6821 32.26 25.1659C37.7187 24.013 41.4239 24.2006 42.4279 25.0973C42.8824 26.2209 41.7847 28.0512 41.1789 28.8259C43.8904 28.8076 45.8083 30.389 46.4283 31.182C43.7575 33.9636 40.1745 34.9976 38.7168 35.1668C39.8911 35.5841 40.4971 38.0247 40.5233 39.2203C38.0952 40.0658 33.2409 39.8806 31.1173 39.6824L31.2164 44.6508C21.8945 45.5109 17.9018 38.1772 17.9018 38.1772Z" fill="white"/>
</svg>
