<svg width="37" height="37" viewBox="0 0 37 37" fill="none" xmlns="http://www.w3.org/2000/svg">
<circle cx="18.5" cy="18.5" r="18.5" fill="#225982"/>
<path d="M13.735 10.8478C13.735 11.8686 12.9025 12.6957 11.875 12.6957C10.8475 12.6957 10.015 11.8686 10.015 10.8478C10.015 9.82783 10.8475 9 11.875 9C12.9025 9 13.735 9.82783 13.735 10.8478ZM13.75 14.1739H10V26H13.75V14.1739ZM19.7365 14.1739H16.0105V26H19.7372V19.792C19.7372 16.3403 24.259 16.058 24.259 19.792V26H28V18.5119C28 12.6875 21.3085 12.8997 19.7365 15.7667V14.1739Z" fill="white"/>
</svg>
