
<svg version="1.1" id="Layer_1" xmlns="http://www.w3.org/2000/svg" xmlns:xlink="http://www.w3.org/1999/xlink" x="0px" y="0px"
	 viewBox="0 0 612 258" style="enable-background:new 0 0 612 258;" xml:space="preserve">
<style type="text/css">
	.st0{fill:#4E4D4E;}
	.st1{fill:#4E4D4E;stroke:#4E4D4E;stroke-width:3;stroke-miterlimit:10;}
</style>
<path id="XMLID_79_" class="st0" d="M37,127.1c0.2,0,0.4,0.1,0.6,0.2c0.6-45,36.7-81.6,81.4-83c-0.1-0.6,0-1.2,0.3-1.7
	c-45.8,1.3-82.8,38.7-83.4,84.6C36.3,127,36.6,127,37,127.1z"/>
<path id="XMLID_127_" class="st0" d="M119.1,212.7c0,0,0-0.1,0-0.1c-44-1.4-79.6-36.8-81.4-80.7c-0.6-0.2-1.2-0.3-1.7-0.5
	c1.6,45.1,38.1,81.5,83.3,82.9C119,213.9,118.9,213.3,119.1,212.7z"/>
<path id="XMLID_146_" class="st0" d="M206,126.6c0.4,0,0.9,0,1.4,0.2c0.2,0,0.3,0.1,0.4,0.2C207,80.6,169.3,43,122.9,42.5
	c0.3,0.5,0.4,1.1,0.4,1.7C168.4,44.9,205,81.4,206,126.6z"/>
<path id="XMLID_147_" class="st0" d="M206.2,131C206.1,131,206.1,131,206.2,131c-0.1,0-0.1,0-0.2,0c-1.3,44.6-37.5,80.6-82.1,81.6
	c-0.1,0.6-0.2,1.2-0.5,1.7c45.9-0.8,83.1-37.7,84.4-83.5C207.3,131.1,206.8,131.2,206.2,131z"/>
<path id="XMLID_78_" class="st0" d="M83.2,88.9c0,0,0.1,0,0.1,0c0.7,0,1.3,0.3,1.6,0.7c8-7.6,18.4-12.8,29.9-14.3
	c-0.3-0.5-0.2-1.2,0-1.8C102.7,75.1,91.7,80.7,83.2,88.9z"/>
<path id="XMLID_82_" class="st0" d="M66.6,127.4c0.3-0.2,0.7-0.3,1.1-0.3c0.2,0,0.4,0,0.6,0.1C68.7,114,73.8,102,82,92.8
	c-0.5-0.5-0.7-1.2-0.7-1.9C72.4,100.6,66.8,113.3,66.6,127.4z"/>
<path id="XMLID_129_" class="st0" d="M68.9,135.7c-0.7-0.1-1.3-0.3-1.9-0.7c1.5,12.1,6.9,23,14.9,31.4c0.1-0.6,0.4-1.2,0.9-1.6
	C75.4,157,70.4,146.9,68.9,135.7z"/>
<path id="XMLID_138_" class="st0" d="M159.7,88.2c-9.7-9.1-22.6-14.8-36.9-15.1c0.2,0.1,0.3,0.2,0.5,0.4c0.4,0.4,0.6,0.9,0.7,1.4
	c13.3,0.5,25.3,5.9,34.4,14.4C158.6,88.8,159.1,88.4,159.7,88.2z"/>
<path id="XMLID_140_" class="st0" d="M176.8,122.8c-1.2-12.3-6.5-23.3-14.5-31.9c-0.1,0.6-0.5,1.2-1.1,1.5
	c7.5,8.2,12.5,18.7,13.7,30.3C175.6,122.4,176.3,122.4,176.8,122.8z"/>
<path id="XMLID_142_" class="st0" d="M175.3,131.3c-0.7,13.2-6.2,25.1-14.8,34c0.4,0.5,0.7,0.9,1.1,1.4c8.9-9.2,14.6-21.4,15.4-34.8
	C176.4,131.9,175.7,131.7,175.3,131.3z"/>
<path id="XMLID_133_" class="st0" d="M157.8,169.1c-0.2-0.2-0.3-0.5-0.5-0.7c-7.9,7-17.9,11.7-28.9,13.1c0.2,0.6,0.2,1.2-0.2,1.8
	c0,0,0,0,0,0c11.5-1.3,22-6.2,30.2-13.6C158.2,169.6,158,169.4,157.8,169.1z"/>
<path id="XMLID_130_" class="st0" d="M118.9,181.8c-12.7-0.7-24.3-5.8-33.1-13.9c-0.3,0.5-0.8,0.9-1.5,1.1
	c9.4,8.7,21.8,14.2,35.4,14.7C119.2,183.2,118.9,182.5,118.9,181.8z"/>
<path id="XMLID_80_" class="st0" d="M88.1,93.9c0.6,0.2,1,0.7,1.2,1.2c6.5-6.4,14.9-10.9,24.3-12.5c-0.2-0.6-0.2-1.2,0.2-1.8
	C103.9,82.5,95,87.2,88.1,93.9z"/>
<path id="XMLID_87_" class="st0" d="M75.3,127c0.3-11,4.5-21.1,11.3-29c-0.6-0.2-1-0.7-1.2-1.2c-7,8.1-11.4,18.5-11.8,29.9
	C74.2,126.6,74.8,126.7,75.3,127z"/>
<path id="XMLID_83_" class="st0" d="M76,136.6c-0.1,0-0.2-0.1-0.4-0.1c-0.4,0.1-0.9,0.1-1.4,0c1.7,9.8,6.3,18.6,12.9,25.4
	c0.1-0.6,0.4-1.2,1-1.5C82,154,77.7,145.7,76,136.6z"/>
<path id="XMLID_81_" class="st0" d="M118.3,174.8c-10.3-0.8-19.7-5-27.1-11.4c-0.2,0.5-0.7,1-1.3,1.1c7.6,6.8,17.5,11.2,28.2,12
	C118,176,118,175.3,118.3,174.8z"/>
<path id="XMLID_85_" class="st0" d="M153.3,93.3c0.3-0.3,0.6-0.5,1-0.6c-8.2-7.5-19.1-12.2-30.9-12.6c-0.2,0.6-0.4,1.2-0.7,1.7
	c11.6,0.2,22.2,4.7,30.3,11.9C153,93.6,153.2,93.5,153.3,93.3z"/>
<path id="XMLID_128_" class="st0" d="M169.7,121.8c-1.4-10-5.9-19.1-12.4-26.2c-0.1,0.3-0.3,0.5-0.5,0.7c-0.2,0.2-0.5,0.4-0.7,0.5
	c6.3,6.8,10.6,15.5,11.9,25.1C168.5,121.7,169.1,121.6,169.7,121.8z"/>
<path id="XMLID_141_" class="st0" d="M168.3,131.9c-0.8,10.9-5.4,20.7-12.4,28.2c0.3,0.5,0.7,0.9,1.1,1.4c7.3-7.8,12.1-18,13-29.4
	C169.4,132.2,168.8,132.1,168.3,131.9z"/>
<path id="XMLID_134_" class="st0" d="M153.9,164.5c-0.4-0.4-0.8-0.9-1.1-1.3c-6.5,5.8-14.7,9.8-23.7,11.2c0.3,0.5,0.3,1.1,0.2,1.7
	C138.6,174.7,147.1,170.5,153.9,164.5z"/>
<path id="XMLID_84_" class="st0" d="M119.3,208.9c0-0.3,0.1-0.6,0.2-0.9c-41.5-1.2-75.1-34.3-77.1-75.6c-0.6,0.1-1.1,0.1-1.7,0.1
	c2.1,42.1,36.4,75.9,78.7,77.3C119.3,209.4,119.3,209.1,119.3,208.9z"/>
<path id="XMLID_145_" class="st0" d="M201.4,126.1C201.4,126.1,201.4,126.1,201.4,126.1c0.7-0.2,1.2-0.1,1.7,0.3
	c-1.1-43.7-36.9-79-80.8-79.3c0.3,0.5,0.4,1.1,0.3,1.7C165.3,49.2,200.2,83.5,201.4,126.1z"/>
<path id="XMLID_148_" class="st0" d="M201.4,130.7c-1.2,42.2-35.3,76.2-77.4,77.3c0,0.6,0,1.1,0,1.7c42.9-1.1,77.7-35.7,79.1-78.5
	C202.5,131.1,201.9,131,201.4,130.7z"/>
<path id="XMLID_86_" class="st0" d="M42.2,127.8c0.3-42.5,34.1-77.2,76.2-79c-0.1-0.6-0.1-1.2,0.2-1.7C75.4,48.8,40.7,84.4,40.5,128
	C41.1,128,41.7,128,42.2,127.8z"/>
<g id="XMLID_1_">
	<path id="XMLID_92_" class="st1" d="M264.7,103.3c3.4-1.9,7.2-2.8,11.3-2.8c5.8,0,10.9,1.9,14.9,5.8l3.1-3
		c-2.1-2.1-4.6-3.8-7.5-4.9c-3.3-1.3-6.9-2-10.9-2c-5.1,0-9.7,1.1-13.8,3.4c-4.1,2.2-7.3,5.3-9.6,9.2c-2.3,3.9-3.5,8.3-3.5,13.2
		c0,4.9,1.2,9.4,3.5,13.3c2.3,3.9,5.5,7,9.5,9.2c4.1,2.2,8.7,3.3,13.8,3.3c4,0,7.6-0.7,10.9-2c2.9-1.2,5.4-2.9,7.6-5l-3.1-3
		c-4.1,3.9-9.1,5.8-14.9,5.8c-4.1,0-7.9-0.9-11.3-2.8c-3.4-1.9-6-4.5-8-7.7c-1.9-3.3-2.8-7-2.8-11.1c0-4,0.9-7.7,2.8-11
		C258.6,107.8,261.3,105.1,264.7,103.3z"/>
	<path id="XMLID_95_" class="st1" d="M331.1,111.8c-2.9-1.6-6.3-2.5-10.1-2.5c-3.8,0-7.2,0.8-10.2,2.5c-3,1.6-5.3,3.9-7,6.8
		c-1.6,2.9-2.5,6.2-2.5,9.9c0,3.7,0.8,7.1,2.5,10c1.7,2.9,4.1,5.2,7,6.8c3,1.7,6.4,2.5,10.1,2.5c3.8,0,7.1-0.8,10.1-2.5
		c3-1.6,5.3-3.9,6.9-6.8c1.7-2.9,2.6-6.3,2.6-10c0-3.7-0.9-7-2.6-9.9C336.4,115.7,334.1,113.4,331.1,111.8z M333.9,136.5
		c-1.3,2.3-3.1,4.2-5.3,5.5c-2.2,1.3-4.7,1.9-7.5,1.9c-2.8,0-5.3-0.6-7.6-1.9c-2.2-1.3-4-3.1-5.3-5.5c-1.3-2.3-1.9-5-1.9-8
		c0-3,0.6-5.6,1.9-8c1.3-2.4,3.1-4.2,5.3-5.5c2.3-1.3,4.8-1.9,7.6-1.9c2.8,0,5.3,0.6,7.5,1.9c2.3,1.3,4.1,3.1,5.3,5.5
		c1.3,2.3,1.9,5,1.9,7.9C335.8,131.5,335.1,134.2,333.9,136.5z"/>
	<path id="XMLID_96_" class="st1" d="M402.1,109.3c-3.2,0-6.1,0.6-8.6,1.8c-2.5,1.2-4.4,2.9-5.8,5l-1.2,1.8l-1-1.9
		c-1.2-2.2-2.9-3.9-5.1-5c-2.2-1.2-4.8-1.7-7.8-1.7c-2.8,0-5.4,0.5-7.6,1.6c-2.2,1-3.9,2.4-5.2,4.3l-2.3,3.2v-8.7h-4.5v37.6h4.8
		v-19.4c0-4.6,1.2-8.2,3.6-10.7c2.4-2.6,5.7-3.9,9.7-3.9c3.7,0,6.6,1.1,8.6,3.4c2,2.2,3.1,5.4,3.1,9.6v21h4.8v-19.4
		c0-4.6,1.2-8.2,3.6-10.7c2.4-2.6,5.7-3.9,9.7-3.9c3.7,0,6.6,1.1,8.6,3.4c2,2.2,3.1,5.4,3.1,9.6v21h4.8v-21.8
		c0-5.4-1.4-9.5-4.1-12.1C410.5,110.7,406.8,109.3,402.1,109.3z"/>
	<path id="XMLID_99_" class="st1" d="M463.1,111.8c-2.9-1.6-6.2-2.4-9.8-2.4c-2.8,0-5.4,0.5-7.7,1.6c-2.3,1-4.2,2.6-5.6,4.6
		l-2.3,3.1v-9h-4.5V162h4.8v-23.1l2.2,2.9c1.5,2,3.4,3.5,5.6,4.5c2.2,1,4.7,1.5,7.4,1.5c3.7,0,7-0.8,9.8-2.4
		c2.9-1.6,5.1-3.8,6.7-6.7c1.6-2.9,2.5-6.3,2.5-10.1c0-3.8-0.8-7.2-2.5-10.1C468.2,115.6,465.9,113.3,463.1,111.8z M465.5,136.5
		c-1.3,2.3-3.1,4.2-5.3,5.5c-2.2,1.3-4.7,1.9-7.5,1.9c-2.7,0-5.3-0.6-7.5-1.9c-2.3-1.3-4-3.2-5.3-5.5c-1.3-2.3-1.9-5-1.9-8
		c0-3,0.6-5.6,1.9-8c1.3-2.3,3.1-4.1,5.3-5.4c2.3-1.3,4.8-2,7.5-2c2.8,0,5.3,0.6,7.5,1.9c2.3,1.3,4.1,3.1,5.3,5.5c1.3,2.3,2,5,2,8
		C467.4,131.5,466.8,134.2,465.5,136.5z"/>
	<path id="XMLID_102_" class="st1" d="M497.8,109.3c-3.1,0-6,0.4-8.8,1.3c-2.3,0.7-4.4,1.7-6.2,2.9l1.8,3.2c1.4-1,3.1-1.8,4.9-2.4
		c2.4-0.9,4.9-1.3,7.4-1.3c3.8,0,6.8,1,8.9,2.8c2.1,1.9,3.1,4.6,3.1,8.1v2.7h-12.8c-5.3,0-9.1,1-11.5,3c-2.3,1.9-3.4,4.3-3.4,7.5
		c0,3.2,1.2,5.6,3.5,7.6c2.5,2,5.9,3,10,3c2.9,0,5.4-0.4,7.4-1.3c2-0.9,3.6-2.2,4.7-3.8l2.3-3.6v8.3h4.4v-23c0-5-1.4-8.8-4.1-11.3
		C507,110.6,503,109.3,497.8,109.3z M509,136.5l-0.1,0.2c-1,2.5-2.7,4.5-4.9,5.9c-2.2,1.3-4.8,2-7.8,2c-3,0-5.5-0.7-7.3-2
		c-1.9-1.4-2.9-3.3-2.9-5.8c0-3.4,1.8-7.5,10.5-7.5H509V136.5z"/>
	<path id="XMLID_103_" class="st1" d="M549.7,128.8c-1.9-0.6-4.5-1.2-7.6-1.8c-2.4-0.5-4.4-0.9-5.8-1.2c-1.5-0.4-2.8-1-3.8-1.9
		c-1.2-1-1.8-2.4-1.8-4.1c0-2.1,1-3.8,3-5.1c1.8-1.1,4.4-1.7,7.7-1.7c4.2,0,7.9,0.9,11.1,2.7l1.9-3.5c-1.4-0.8-3.2-1.4-5.2-1.9
		c-2.6-0.6-5.2-0.9-7.7-0.9c-4.8,0-8.7,1-11.5,3.1c-2.7,1.9-4,4.4-4,7.7c0,2.5,0.6,4.4,1.9,5.7c1.3,1.4,2.9,2.4,4.7,3
		c2,0.6,4.6,1.2,7.8,1.7c2.4,0.4,4.3,0.8,5.5,1.2c1.5,0.3,2.8,0.9,3.8,1.8c1.1,0.9,1.8,2.3,1.8,3.8c0,3.1-1.9,6.7-10.8,6.7
		c-2.7,0-5.4-0.4-8-1.2c-2.1-0.6-4-1.4-5.6-2.4l-1.9,3.6c1.5,1,3.5,1.9,5.8,2.6c2.9,0.8,6,1.2,9.1,1.2c5.1,0,9.1-1,11.9-3
		c2.8-1.9,4.2-4.4,4.2-7.7c0-2.4-0.6-4.2-1.8-5.5C553,130.3,551.5,129.4,549.7,128.8z"/>
	<path id="XMLID_104_" class="st1" d="M592.2,131.6c-1.3-1.3-2.8-2.3-4.6-2.8c-1.9-0.6-4.5-1.2-7.6-1.8c-2.4-0.5-4.4-0.9-5.8-1.2
		c-1.5-0.4-2.8-1-3.8-1.9c-1.2-1-1.8-2.4-1.8-4.1c0-2.1,1-3.8,3-5.1c1.8-1.1,4.4-1.7,7.7-1.7c4.2,0,7.9,0.9,11.1,2.7l1.9-3.5
		c-1.4-0.8-3.2-1.4-5.2-1.9c-2.6-0.6-5.2-0.9-7.7-0.9c-4.8,0-8.7,1-11.5,3.1c-2.7,1.9-4,4.4-4,7.7c0,2.5,0.6,4.4,1.9,5.7
		c1.3,1.4,2.9,2.4,4.7,3c2,0.6,4.6,1.2,7.8,1.7c2.4,0.4,4.3,0.8,5.5,1.2c1.5,0.3,2.8,0.9,3.8,1.8c1.1,0.9,1.7,2.3,1.7,3.8
		c0,3.1-1.9,6.7-10.8,6.7c-2.7,0-5.4-0.4-8-1.2c-2.1-0.6-4-1.4-5.6-2.4l-1.9,3.6c1.5,1,3.5,1.9,5.8,2.6c2.9,0.8,6,1.2,9.1,1.2
		c5.1,0,9.1-1,11.9-3c2.8-1.9,4.2-4.4,4.2-7.7C594,134.8,593.4,132.9,592.2,131.6z"/>
</g>
<path id="XMLID_36_" class="st0" d="M229.7,129.5l-88.1-12.1L172.9,78L132,109.1l-10.2-88.3l-12.1,88L70.4,77.6l31.1,40.9
	l-88.3,10.2l88.1,12.1l-31.3,39.4l40.9-31l10.2,88.3l12.2-88.1l39.3,31.2l-31-40.9L229.7,129.5z M222.7,129.5L121.6,129l15.7-11.3
	L222.7,129.5z M123.5,116.6L167.8,83l-46.4,45.9L123.5,116.6z M121.8,27.8l-0.5,101.1L110,113.1L121.8,27.8z M75.3,82.7l45.9,46.4
	l-12.3-2.1L75.3,82.7z M20.1,128.7l101.1,0.5l-15.7,11.3L20.1,128.7z M119.3,141.6L75,175.2l46.4-45.9L119.3,141.6z M121,230.4
	l0.5-101.1l11.3,15.7L121,230.4z M167.5,175.6l-45.9-46.4l12.3,2.1L167.5,175.6z"/>
</svg>
