<svg width="43" height="41" viewBox="0 0 43 41" fill="none" xmlns="http://www.w3.org/2000/svg">
<rect x="19.9629" width="2.77897" height="20.2107" rx="1.38948" fill="white"/>
<rect x="13.3936" y="4.26323" width="2.77897" height="10.4705" rx="1.38948" transform="rotate(-45.7178 13.3936 4.26323)" fill="white"/>
<rect x="21.9272" y="11.6425" width="2.77897" height="10.4705" rx="1.38948" transform="rotate(-135 21.9272 11.6425)" fill="white"/>
<rect x="22.7573" y="40.4215" width="2.77897" height="20.2107" rx="1.38948" transform="rotate(180 22.7573 40.4215)" fill="white"/>
<rect x="29.3267" y="36.1582" width="2.77897" height="10.4705" rx="1.38948" transform="rotate(134.282 29.3267 36.1582)" fill="white"/>
<rect x="20.793" y="28.779" width="2.77897" height="10.4705" rx="1.38948" transform="rotate(45 20.793 28.779)" fill="white"/>
<rect x="37.8628" y="7.86594" width="2.77897" height="20.2107" rx="1.38948" transform="rotate(58.3644 37.8628 7.86594)" fill="white"/>
<rect x="30.7861" y="4.50956" width="2.77897" height="10.4705" rx="1.38948" transform="rotate(12.6466 30.7861 4.50956)" fill="white"/>
<rect x="28.9805" y="15.6453" width="2.77897" height="10.4705" rx="1.38948" transform="rotate(-76.6356 28.9805 15.6453)" fill="white"/>
<rect x="4.91699" y="31.4517" width="2.77897" height="20.2107" rx="1.38948" transform="rotate(-121.636 4.91699 31.4517)" fill="white"/>
<rect x="11.9937" y="34.8081" width="2.77897" height="10.4705" rx="1.38948" transform="rotate(-167.353 11.9937 34.8081)" fill="white"/>
<rect x="13.7993" y="23.6724" width="2.77897" height="10.4705" rx="1.38948" transform="rotate(103.364 13.7993 23.6724)" fill="white"/>
<rect x="39.7368" y="28.5491" width="2.77897" height="20.2107" rx="1.38948" transform="rotate(119.767 39.7368 28.5491)" fill="white"/>
<rect x="39.3003" y="20.7306" width="2.77897" height="10.4705" rx="1.38948" transform="rotate(74.0493 39.3003 20.7306)" fill="white"/>
<rect x="28.6577" y="24.4743" width="2.77897" height="10.4705" rx="1.38948" transform="rotate(-15.2329 28.6577 24.4743)" fill="white"/>
<rect x="3.26367" y="10.9114" width="2.77897" height="20.2107" rx="1.38948" transform="rotate(-60.2329 3.26367 10.9114)" fill="white"/>
<rect x="3.7002" y="18.7299" width="2.77897" height="10.4705" rx="1.38948" transform="rotate(-105.951 3.7002 18.7299)" fill="white"/>
<rect x="14.3428" y="14.9863" width="2.77897" height="10.4705" rx="1.38948" transform="rotate(164.767 14.3428 14.9863)" fill="white"/>
</svg>
