
<svg version="1.1" id="Layer_1" xmlns="http://www.w3.org/2000/svg" xmlns:xlink="http://www.w3.org/1999/xlink" x="0px" y="0px"
	 viewBox="0 0 612 792" style="enable-background:new 0 0 612 792;" xml:space="preserve">
<style type="text/css">
	.st0{fill:#FFFFFF;}
	.st1{fill:#FFCC12;}
</style>
<g>
	<path class="st0" d="M385.5,588.8c-11.8,0-23.5,0-35.3,0c0-4,0-7.9,0-12.4c-68.3,0-136.3,0-204.3,0c0-111.7,0-222.9,0-334.1
		c61.9,0,123.6,0,185.6,0c0,1.6,0,3,0,4.3c0,12.1,0,24.2,0,36.4c0,6.7,1.9,8.6,8.8,8.6c12,0,24,0,36,0c1.5,0,2.9,0,4.9,0
		c0,16.7,0,33,0,49.3c4.3,0,8.1,0,12.1,0c0.1-1.1,0.3-1.9,0.3-2.7c0-17.1,0.1-34.3-0.1-51.4c0-2.4-1.5-5.4-3.2-7.1
		c-15.1-15.4-30.6-30.6-45.7-46c-2.8-2.9-5.8-4.1-9.9-4.1c-53.1,0.1-106.2,0.1-159.4,0.1c-1.5,0-2.9,0-4.5,0c0-4.3,0-8.1,0-12.1
		c78.4,0,156.6,0,235.2,0c0,45.4,0,90.6,0,135.8c4.3,0,8.1,0,12.2,0c0.1-1.3,0.2-2.4,0.2-3.5c0-45.5,0-91,0.1-136.5
		c0-3.7-1.1-6.6-4.3-8.4c28.3,0,56.5,0,84.8,0c0,128,0,256,0,384c-36.5,0-73,0-109.5,0c0.3-0.2,0.5-0.5,0.8-0.7
		c18.1-10.3,36.3-20.5,54.3-31c23.7-13.8,35.7-34.5,35.7-62c0-18.7,0-37.5,0-56.2c0-13.6,0-27.2,0-40.9c0-5.2-2.1-7.3-7.2-7.4
		c-2.6,0-5.2,0-7.9,0c-28.7-0.5-52.6-11.4-71.4-33.1c-4.6-5.3-8.1-5.4-12.5-0.1c-7,8.3-15.2,15.2-24.5,20.6
		c-16.6,9.7-34.6,13.2-53.6,12.7c-6.8-0.2-8.6,1.7-8.6,8.6c0,32.1-0.2,64.2,0,96.3c0.2,27.4,12.4,48,36.2,61.7
		C348.9,567.8,367.2,578.3,385.5,588.8z M318.9,304c-53.6,0-107,0-160.4,0c0,4.2,0,8.1,0,12c53.6,0,106.9,0,160.4,0
		C318.9,312,318.9,308,318.9,304z M318.9,328.8c-53.6,0-107,0-160.4,0c0,4.2,0,8.1,0,12c53.6,0,106.9,0,160.4,0
		C318.9,336.7,318.9,332.8,318.9,328.8z M318.9,353.6c-53.6,0-107,0-160.4,0c0,4.2,0,8.1,0,12.1c53.6,0,106.9,0,160.4,0
		C318.9,361.5,318.9,357.6,318.9,353.6z M158.3,390.3c41.4,0,82.4,0,123.3,0c0-4.2,0-8.1,0-12c-41.3,0-82.2,0-123.3,0
		C158.3,382.4,158.3,386.2,158.3,390.3z M281.8,403.2c-41.3,0-82.3,0-123.3,0c0,4.2,0,8.1,0,12c41.3,0,82.2,0,123.3,0
		C281.8,411.1,281.8,407.3,281.8,403.2z M158.3,439.9c41.4,0,82.4,0,123.5,0c0-4.1,0-8,0-12c-41.2,0-82.2,0-123.5,0
		C158.3,432,158.3,435.8,158.3,439.9z M281.8,502.3c-41.3,0-82.3,0-123.3,0c0,4.2,0,8.1,0,12c41.2,0,82.2,0,123.3,0
		C281.8,510.3,281.8,506.4,281.8,502.3z M281.7,539.1c0-4.2,0-8.1,0-12c-41.3,0-82.3,0-123.3,0c0,4.1,0,8,0,12
		C199.5,539.1,240.5,539.1,281.7,539.1z M281.8,551.8c-41.2,0-82.3,0-123.4,0c0,4.1,0,8.1,0,11.9c41.3,0,82.3,0,123.4,0
		C281.8,559.6,281.8,555.8,281.8,551.8z M238.7,266.4c27,0,53.6,0,80.2,0c0-4.2,0-8,0-11.8c-26.9,0-53.5,0-80.2,0
		C238.7,258.6,238.7,262.3,238.7,266.4z M176.7,254.5c-4.4,0-8.3,0-12.3,0c0,4.1,0,7.9,0,12.2c3.6,0,7,0.1,10.5-0.1
		c0.6,0,1.7-1.1,1.7-1.7C176.8,261.4,176.7,258,176.7,254.5z M189.3,254.5c0,4.2,0,8,0,12.3c3.5,0,6.7,0.1,9.9-0.1
		c0.8-0.1,2.2-1.3,2.2-2c0.2-3.3,0.1-6.6,0.1-10.1C197.3,254.5,193.4,254.5,189.3,254.5z M226,266.5c0-4.3,0-8.2,0-11.9
		c-4.2,0-8.1,0-11.9,0c0,4.1,0,7.9,0,11.9C218.1,266.5,221.9,266.5,226,266.5z"/>
	<path class="st1" d="M414,204.8c3.3,1.9,4.3,4.7,4.3,8.4c-0.1,45.5,0,91-0.1,136.5c0,1.1-0.1,2.2-0.2,3.5c-4.1,0-7.9,0-12.2,0
		c0-45.2,0-90.4,0-135.8c-78.6,0-156.8,0-235.2,0c0,4,0,7.8,0,12.1c1.6,0,3,0,4.5,0c53.1,0,106.2,0,159.4-0.1c4.1,0,7,1.2,9.9,4.1
		c15.2,15.4,30.6,30.6,45.7,46c1.7,1.8,3.2,4.7,3.2,7.1c0.3,17.1,0.1,34.2,0.1,51.4c0,0.8-0.2,1.7-0.3,2.7c-4,0-7.8,0-12.1,0
		c0-16.3,0-32.6,0-49.3c-1.9,0-3.4,0-4.9,0c-12,0-24,0-36,0c-6.9,0-8.8-1.9-8.8-8.6c0-12.1,0-24.2,0-36.4c0-1.4,0-2.7,0-4.3
		c-62,0-123.7,0-185.6,0c0,111.3,0,222.5,0,334.1c68.1,0,136,0,204.3,0c0,4.5,0,8.5,0,12.4c-71,0-142,0-213,0
		c-2.9-2-3.9-4.7-3.9-8.2c0.1-114.3,0.1-228.6,0.1-342.9c0-6.1,2-8,8.1-8.1c5.5,0,10.9,0,16.7,0c0-5.7,0.2-10.9-0.1-16.1
		c-0.2-3.7,0.8-6.5,3.9-8.6C246,204.8,330,204.8,414,204.8z M344.1,278.8c9.3,0,18.3,0,26,0c-8.5-8.5-17.4-17.4-26-26
		C344.1,260.8,344.1,269.6,344.1,278.8z"/>
	<path class="st1" d="M385.5,588.8c-18.3-10.5-36.6-21-54.9-31.5c-23.8-13.7-36.1-34.2-36.2-61.7c-0.2-32.1-0.1-64.2,0-96.3
		c0-6.9,1.8-8.8,8.6-8.6c19,0.5,37-3,53.6-12.7c9.4-5.5,17.5-12.4,24.5-20.6c4.5-5.2,8-5.1,12.5,0.1c18.8,21.8,42.7,32.6,71.4,33.1
		c2.6,0,5.2,0,7.9,0c5.1,0.1,7.2,2.2,7.2,7.4c0,13.6,0,27.2,0,40.9c0,18.7,0,37.5,0,56.2c-0.1,27.5-12,48.2-35.7,62
		c-18,10.5-36.2,20.7-54.3,31c-0.3,0.2-0.5,0.5-0.8,0.7C388,588.8,386.8,588.8,385.5,588.8z M306.9,402.9c-0.1,1.6-0.2,2.8-0.2,4
		c0,29.7-0.1,59.5,0,89.2c0.1,21.9,9.8,38.6,28.7,49.7c16.3,9.5,32.7,18.7,49.1,28.1c2,1.1,3.4,1.2,5.4,0
		c16.1-9.3,32.3-18.5,48.4-27.8c19.7-11.4,29.4-28.6,29.5-51.2c0.1-29.2,0-58.5,0-87.7c0-1.3,0-2.7,0-4.3
		c-31.9,0.2-58.6-11-80.6-33.9c-10.4,11.1-22.5,19.6-36.3,25.5C336.9,400.6,322.3,403.1,306.9,402.9z"/>
	<path class="st0" d="M162,204.8c-3.1,2.1-4.1,4.9-3.9,8.6c0.3,5.2,0.1,10.4,0.1,16.1c-5.8,0-11.2,0-16.7,0c-6.1,0-8.1,2-8.1,8.1
		c0,114.3,0,228.6-0.1,342.9c0,3.6,1,6.3,3.9,8.2c-7.5,0-15,0-22.5,0c0-128,0-256,0-384C130.5,204.8,146.3,204.8,162,204.8z"/>
	<path class="st1" d="M318.9,304c0,4,0,7.9,0,12c-53.5,0-106.8,0-160.4,0c0-4,0-7.9,0-12C211.9,304,265.3,304,318.9,304z"/>
	<path class="st1" d="M318.9,328.8c0,4,0,7.9,0,12c-53.5,0-106.8,0-160.4,0c0-4,0-7.9,0-12C211.9,328.8,265.3,328.8,318.9,328.8z"/>
	<path class="st1" d="M318.9,353.6c0,4,0,7.9,0,12.1c-53.5,0-106.8,0-160.4,0c0-4,0-7.9,0-12.1C211.9,353.6,265.3,353.6,318.9,353.6
		z"/>
	<path class="st1" d="M158.3,390.3c0-4.1,0-7.9,0-12c41.1,0,82.1,0,123.3,0c0,3.8,0,7.8,0,12C240.8,390.3,199.7,390.3,158.3,390.3z"
		/>
	<path class="st1" d="M281.8,403.2c0,4.2,0,8,0,12c-41.1,0-82.1,0-123.3,0c0-3.9,0-7.8,0-12C199.5,403.2,240.5,403.2,281.8,403.2z"
		/>
	<path class="st1" d="M158.3,439.9c0-4.1,0-7.9,0-12c41.2,0,82.2,0,123.5,0c0,4,0,7.9,0,12C240.8,439.9,199.7,439.9,158.3,439.9z"/>
	<path class="st1" d="M281.8,502.3c0,4.2,0,8,0,12c-41.1,0-82.1,0-123.3,0c0-3.9,0-7.8,0-12C199.5,502.3,240.5,502.3,281.8,502.3z"
		/>
	<path class="st1" d="M281.7,539.1c-41.2,0-82.2,0-123.3,0c0-4,0-7.8,0-12c41,0,82,0,123.3,0C281.7,531,281.7,534.9,281.7,539.1z"/>
	<path class="st1" d="M281.8,551.8c0,4,0,7.8,0,11.9c-41.1,0-82.1,0-123.4,0c0-3.9,0-7.8,0-11.9
		C199.5,551.8,240.6,551.8,281.8,551.8z"/>
	<path class="st1" d="M238.7,266.4c0-4.1,0-7.8,0-11.8c26.7,0,53.4,0,80.2,0c0,3.8,0,7.6,0,11.8
		C292.3,266.4,265.6,266.4,238.7,266.4z"/>
	<path class="st1" d="M176.7,254.5c0,3.5,0.1,6.9-0.1,10.3c0,0.6-1.1,1.7-1.7,1.7c-3.4,0.2-6.9,0.1-10.5,0.1c0-4.3,0-8.1,0-12.2
		C168.4,254.5,172.3,254.5,176.7,254.5z"/>
	<path class="st1" d="M189.3,254.5c4.1,0,7.9,0,12.2,0c0,3.5,0.1,6.8-0.1,10.1c-0.1,0.8-1.4,2-2.2,2c-3.2,0.2-6.4,0.1-9.9,0.1
		C189.3,262.5,189.3,258.6,189.3,254.5z"/>
	<path class="st1" d="M226,266.5c-4.1,0-7.9,0-11.9,0c0-4,0-7.8,0-11.9c3.8,0,7.7,0,11.9,0C226,258.4,226,262.2,226,266.5z"/>
	<path class="st0" d="M344.1,278.8c0-9.2,0-18,0-26c8.6,8.6,17.5,17.5,26,26C362.4,278.8,353.4,278.8,344.1,278.8z"/>
	<path class="st0" d="M306.9,402.9c15.3,0.2,30-2.4,44-8.3c13.9-5.9,25.9-14.4,36.3-25.5c22,22.9,48.7,34.1,80.6,33.9
		c0,1.6,0,3,0,4.3c0,29.2,0.1,58.5,0,87.7c-0.1,22.6-9.8,39.9-29.5,51.2c-16.1,9.3-32.3,18.4-48.4,27.8c-2,1.2-3.4,1.1-5.4,0
		c-16.3-9.4-32.8-18.6-49.1-28.1c-18.9-11.1-28.6-27.8-28.7-49.7c-0.2-29.7,0-59.5,0-89.2C306.8,405.7,306.9,404.5,306.9,402.9z
		 M319.2,477.1c-0.1,37.5,30.2,68,67.7,68.2c37.7,0.2,68.3-30.1,68.5-67.7c0.1-37.7-30-68.2-67.8-68.4
		C350,409,319.3,439.5,319.2,477.1z"/>
	<path class="st1" d="M319.2,477.1c0.1-37.7,30.8-68.2,68.3-67.9c37.8,0.2,68,30.7,67.8,68.4c-0.1,37.6-30.8,67.9-68.5,67.7
		C349.4,545.1,319.1,514.6,319.2,477.1z M331.5,477.1c0,30.8,25,55.9,55.7,55.9c30.6,0.1,55.9-25.2,55.8-55.9
		c0-30.6-25-55.6-55.6-55.7C356.7,421.5,331.6,446.4,331.5,477.1z"/>
	<path class="st0" d="M331.5,477.1c0-30.7,25.2-55.7,56-55.6c30.5,0.1,55.5,25.1,55.6,55.7c0,30.6-25.2,55.9-55.8,55.9
		C356.5,533,331.5,507.9,331.5,477.1z M373.7,484.9c-3.4,3.4-6.2,6.2-9.3,9.2c5.8,5.7,11.5,11.5,17.2,17.2c5.1,5,10,3.8,12-3
		c3.7-12.2,7.3-24.4,11-36.5c2.3-7.8,4.7-15.7,7.1-23.8c-4.1-1.2-7.8-2.3-11.8-3.5c-5.2,17.4-10.3,34.4-15.7,52
		C380.5,492.4,377.2,488.8,373.7,484.9z"/>
	<path class="st1" d="M373.7,484.9c3.5,3.9,6.8,7.5,10.6,11.6c5.3-17.6,10.4-34.6,15.7-52c4,1.2,7.7,2.3,11.8,3.5
		c-2.4,8.1-4.7,15.9-7.1,23.8c-3.6,12.2-7.3,24.4-11,36.5c-2.1,6.8-6.9,8-12,3c-5.8-5.7-11.5-11.4-17.2-17.2
		C367.5,491.2,370.3,488.4,373.7,484.9z"/>
</g>
</svg>
