<svg width="27" height="59" viewBox="0 0 27 59" fill="none" xmlns="http://www.w3.org/2000/svg">
<path d="M6.1 58.1H17.8V28.8H26L26.9 19H17.9C17.9 19 17.9 15.3 17.9 13.4C17.9 11.1 18.4 10.2 20.6 10.2C22.4 10.2 26.9 10.2 26.9 10.2V0C26.9 0 20.2 0 18.8 0C10.1 0 6.2 3.8 6.2 11.2C6.2 17.6 6.2 19 6.2 19H0V28.9H6.1V58.1Z" fill="#6454A3"/>
</svg>
