<svg width="63" height="39" viewBox="0 0 63 39" fill="none" xmlns="http://www.w3.org/2000/svg">
<path d="M37.0004 18.0998H19.4004V23.0998H31.3004C29.9004 29.1998 25.6004 32.9998 19.8004 32.9998C12.2004 32.9998 6.00039 26.7998 6.00039 19.1998C6.00039 11.5998 12.2004 5.39981 19.8004 5.39981C23.4004 5.39981 26.7004 6.7998 29.2004 9.0998L33.1004 5.69981C29.7004 2.29981 25.0004 0.299805 19.8004 0.299805C9.30039 0.299805 0.900391 8.79981 0.900391 19.1998C0.900391 29.6998 9.40039 38.0998 19.8004 38.0998C29.8004 38.0998 37.1004 30.3998 37.1004 19.9998L37.0004 18.0998Z" fill="#6454A3"/>
<path d="M62.2006 18.2996H55.0006V11.0996H50.3006V18.2996H43.1006V22.9996H50.3006V30.1996H55.0006V22.9996H62.2006V18.2996Z" fill="#6454A3"/>
</svg>
