
<svg version="1.1" id="Layer_1" xmlns="http://www.w3.org/2000/svg" xmlns:xlink="http://www.w3.org/1999/xlink" x="0px" y="0px"
	 viewBox="0 0 612 792" style="enable-background:new 0 0 612 792;" xml:space="preserve">
<style type="text/css">
	.st0{fill:#FFCC12;}
</style>
<g>
	<path class="st0" d="M394.6,191.8c6.4,1.1,12.9,1.9,19.2,3.3c52.6,11.7,92.5,57.5,96.9,111.4c7.6,91.3-80.9,159.5-167.2,129
		c-1.1-0.4-2.2-0.7-3.9-1.3c0,6.2-0.2,11.9,0.1,17.5c0.2,3.6-1.1,4.5-4.6,4.5c-8.7-0.1-8.7,0-8.7-8.6c0-52.7,0-105.3,0-158
		c0-5.3,0-5.3-5.2-5.3c-6,0-12-0.1-18,0c-2.4,0-3.4-0.7-3.3-3.2c0.2-3.2,0-6.3,0-9.7c1.3-0.2,2.3-0.5,3.1-0.3
		c6.8,1.3,11.6-1.9,16-6.7c5.3-5.8,11.2-11,16.4-16.9c8.3-9.4,12.7-20.8,15.2-33c0.2-1,0.2-2,0.4-4.2c-6.4,2.9-12.4,5-17.9,8.1
		c-25.1,13.7-43,33.8-52.7,60.8c-1.5,4.2-3.5,5.2-7.7,5.2c-37.5-0.2-74.9-0.1-112.4-0.1c-1.7,0-3.4,0-5.4,0c0,83.8,0,167.2,0,251.1
		c1.7,0,3.3,0,4.8,0c53.9,0,107.7,0,161.6,0.1c4,0,5.2-0.9,5.2-5.1c-0.2-18.9,0-37.9-0.2-56.8c0-3.6,1-4.4,4.5-4.4
		c39.7,0.1,79.5,0.1,119.2,0.1c1.9,0,4.1,0.3,5.7,1.2c17.9,10.1,35.7,20.3,53.5,30.4c0.4,0.3,0.8,0.6,1.7,1.3
		c-1.3,0.8-2.3,1.6-3.3,2.2c-17,9.7-34,19.5-51,29.1c-2.1,1.2-4.8,1.7-7.2,1.7c-34.7,0.1-69.3,0.1-104,0.1c-1.7,0-3.4,0-5.6,0
		c0,4.5,0,8.5,0,12.7c-2,0.5-3.5,0.8-5,1.1c-9,2.3-15.3,10.6-14.9,19.8c0.4,9.4,7.1,17.3,16.2,18.7c2.9,0.4,3.9,1.5,3.7,4.3
		c-0.2,2.9,0,5.8,0,9.3c-1.7,0-3.1,0-4.5,0c-66,0-132,0-198,0c-18.2,0-30.2-9.3-34.7-27c-0.1-0.4-0.4-0.7-0.6-1
		c0-91.5,0-182.9,0-274.4c0.2-0.2,0.4-0.4,0.5-0.6c5.3-18.7,16.5-27.3,36.1-27.3c42.1,0,84.2-0.1,126.3,0c3.2,0,4.8-0.9,6.2-4
		c16.9-36.9,45-60.8,84.2-71.3c7.7-2,15.7-2.8,23.5-4.1C383.9,191.8,389.3,191.8,394.6,191.8z M489.3,275.4
		c-14.1-39.5-57.5-69.6-98-69.6c-0.5,3.1-1,6.3-1.6,9.4c-2.9,16.9-9.9,32.2-17.2,47.5c-3.1,6.4-4.8,13.5-6.2,20.4
		c-1.1,5.2,1.4,9.7,5.9,12.7c3.1,2,6.4,3.9,9.7,5.6c7.7,3.9,14.6,8.4,20.4,15c5.8,6.6,13.8,8.7,22.6,7.1c7.6-1.4,12.8-5.9,17.1-12.1
		c9.9-14.4,22.6-25.4,38.7-32.4C483.5,277.7,486.4,276.5,489.3,275.4z M494,288.1c-1.9,0.6-3.4,1-4.9,1.6
		c-16.5,6.2-28.5,17.7-38.5,31.8c-13.6,19.1-41.6,21.2-57.6,4.2c-5.2-5.5-11-9.5-17.6-12.8c-3.3-1.7-6.6-3.6-9.7-5.5
		c-9-5.7-13.2-14-12.8-24.6c0.4-9.6,4-18.1,7.9-26.6c4.4-9.7,8.8-19.4,12.5-29.4c2.4-6.6,3.4-13.8,5.2-21.5c-4.2,0.5-7.2,1-10.2,1.3
		c-2.4,0.2-3.3,1.5-3.6,3.9c-2.9,23.1-13.2,42.3-30.4,57.8c-0.8,0.7-1.5,1.6-2.9,3.1c3.3,0,5.5,0,8.2,0c0,1.9,0,3.5,0,5.1
		c0,17.5,0.1,34.9-0.1,52.4c0,3.4,0.6,5.3,4.4,6c3.6,0.6,7.2,2,10.6,3.4c15.4,6.1,25.8,16.8,29.2,33.4c3.8,18.6,2.6,36.8-5.1,54.4
		c-0.4,0.9-0.6,1.9-1.1,3.3c6.1,0,11.7,0,17.6,0c-6.8-28.6-0.4-52.9,22.6-71c23.1-18.2,48.3-18.6,74.5-5.4
		C499.3,331.3,499.9,310,494,288.1z M115.2,542c8.1-6.1,16.8-6.9,26.2-6.6c0-2.2,0-3.9,0-5.6c0-80,0-159.9,0-239.9
		c0-1.1,0.3-2.3-0.1-3.2c-0.4-1-1.4-2.3-2.3-2.4c-6.6-0.6-12.7,0.5-17.8,5.3c-4.9,4.7-6.3,10.5-6.3,17c0,76.8,0,153.5,0,230.3
		C115,538.4,115.1,539.7,115.2,542z M313.2,588.3c-4.3-6.6-6.6-12.8-6.6-19.8c-0.1-7.1,2.5-13.4,6.4-19.9c-2,0-3.3,0-4.6,0
		c-56.9,0-113.8,0-170.8,0c-1.3,0-2.7,0-4,0.1c-9.5,0.6-17.2,7.8-18.4,17.1c-1.2,9.7,4.2,18.7,13.5,21.4c3,0.9,6.3,1.1,9.5,1.1
		c56.7,0.1,113.3,0,170,0C309.5,588.3,310.8,588.3,313.2,588.3z M409,427.3c35.7-8.4,61.2-29,77.9-61.1c-14.8-12.4-41.9-11.8-59.4,1
		C408.5,381,400.5,406.4,409,427.3z M340,347.6c-0.2,0.7-0.4,1.3-0.4,1.8c0,22.5-0.1,45.1,0.1,67.6c0,1.3,1.4,3.1,2.6,3.6
		c4,1.8,8.2,3.2,12.4,4.5c8.4,2.6,8.8,2.5,12.4-5.8c5.8-13.2,6.5-27.2,4.4-41.2C369,360.8,357.9,350.3,340,347.6z M445.2,482.9
		c-35.4,0-70.3,0-105.4,0c0,4.3,0,8.4,0,12.9c1.6,0,2.9,0,4.2,0c32.2,0,64.5,0,96.7,0c0.7,0,1.5,0.2,2-0.1c0.9-0.6,2.3-1.4,2.4-2.2
		C445.4,490,445.2,486.6,445.2,482.9z M340.2,522.2c1.6,0,3.1,0,4.7,0c30.8,0,61.5,0,92.3,0c8.1,0,7.9,0,8.2-8.3
		c0.1-3.8-0.9-5-4.8-4.9c-30.1,0.2-60.2,0.1-90.3,0.1c-11.6,0-11.6,0-10.6,11.7C339.7,521,339.9,521.2,340.2,522.2z M458.9,487.5
		c0,10.2,0,19.7,0,29.6c8.7-5,17-9.7,25.9-14.8C475.8,497.2,467.5,492.5,458.9,487.5z"/>
	<path class="st0" d="M167.8,297.5c2,0,3.4,0,4.9,0c45.2,0,90.4,0.1,135.5-0.1c4.2,0,5.1,1.2,5.1,5.1c-0.1,36.3-0.1,72.5-0.1,108.8
		c0,5.1,0,5.1-5.3,5.1c-45.1,0-90.1-0.1-135.2,0.1c-4.2,0-5-1.2-5-5.2c0.1-36.3,0.1-72.5,0.1-108.8
		C167.8,301.1,167.8,299.5,167.8,297.5z M181.2,403c1.5,0.1,2.5,0.3,3.5,0.3c37.1,0,74.1,0,111.2,0.1c3.2,0,4-1,4-4.1
		c-0.1-28.1-0.1-56.3,0-84.4c0-3.5-1.3-4.1-4.4-4.1c-36.7,0.1-73.3,0.1-110,0.1c-1.4,0-2.8,0.2-4.3,0.3
		C181.2,341.9,181.2,372.2,181.2,403z"/>
	<path class="st0" d="M240.6,429.7c22.7,0,45.3,0.1,68-0.1c3.7,0,4.8,1.1,4.7,4.7c-0.2,8.5,0,8.5-8.4,8.5c-44,0-88,0-131.9,0
		c-5.1,0-5.1,0-5.2-5.3c0-7.9,0-7.9,8.1-7.9C197.4,429.7,219,429.7,240.6,429.7z"/>
	<path class="st0" d="M168.1,469.3c0-4.5,0-8.5,0-12.9c48.3,0,96.5,0,145.1,0c0,3.7,0.1,7.2-0.1,10.6c-0.1,0.8-1.2,1.7-2.1,2.2
		c-0.8,0.4-1.8,0.1-2.8,0.1c-45.2,0-90.4,0-135.5,0C171.2,469.3,169.8,469.3,168.1,469.3z"/>
	<path class="st0" d="M312.7,483c1.9,12.8,1.9,12.8-10.3,12.8c-43.1,0-86.1,0-129.2,0c-1.6,0-3.2,0-5.2,0c0-4.3,0-8.3,0-12.8
		C216.2,483,264.3,483,312.7,483z"/>
	<path class="st0" d="M313.2,521.9c-48.8,0-96.8,0-145.1,0c0-4.3,0-8.3,0-12.9c1.7,0,3.1,0,4.6,0c45.2,0,90.4,0.1,135.5-0.1
		c4,0,5.6,1,5.1,5.1C312.9,516.5,313.2,519,313.2,521.9z"/>
	<path class="st0" d="M418.9,291.2c4.6,0,8.6,0,12.9,0c0,4.2,0,8.3,0,13c-3.7,0-7.5,0.1-11.2-0.1c-0.6,0-1.6-1.1-1.6-1.7
		C418.8,298.8,418.9,295.1,418.9,291.2z"/>
	<path class="st0" d="M418.6,257.6c-4.2,0-8.3,0-12.6,0c0-4.2,0-8.4,0-12.7c4.2,0,8.3,0,12.6,0C418.6,249.2,418.6,253.3,418.6,257.6
		z"/>
	<path class="st0" d="M458.3,264.5c-3.8,0-7.3,0.1-10.7-0.1c-0.8-0.1-2.1-1.2-2.2-2c-0.2-3.5-0.1-7.1-0.1-10.8c4.6,0,8.6,0,13,0
		C458.3,255.9,458.3,259.9,458.3,264.5z"/>
	<path class="st0" d="M386.1,271.3c4.4,0,8.3,0,12.7,0c0,3.7,0.1,7.3-0.1,10.8c0,0.8-1.3,2-2,2.1c-3.4,0.2-6.8,0.1-10.6,0.1
		C386.1,279.8,386.1,275.7,386.1,271.3z"/>
	<path class="st0" d="M194.8,574.8c-0.3-0.5-0.4-0.6-0.4-0.7c-1.3-12.2-1.3-12.2,10.8-12.2c27.4,0,54.8,0,82.3,0c1.7,0,3.4,0,5.5,0
		c0,4.4,0,8.5,0,12.9C260.2,574.8,227.5,574.8,194.8,574.8z"/>
	<path class="st0" d="M154.9,574.7c0-4.3,0-8.3,0-12.6c8.7,0,17.1,0,25.9,0c0,4.1,0,8.2,0,12.6C172.3,574.7,163.8,574.7,154.9,574.7
		z"/>
	<path class="st0" d="M128.4,574.7c0-4.2,0-8.3,0-12.6c4.2,0,8.3,0,12.6,0c0,4.2,0,8.2,0,12.6C137,574.7,133,574.7,128.4,574.7z"/>
	<path class="st0" d="M451.8,370.4c4.5,0,8.6,0,13.2,0c0,3.8,0.9,7.8-0.2,11c-1.6,4.6-6.2,1.2-9.3,2c-1.5,0.4-3.7,0.6-3.7-2.2
		C451.8,377.7,451.8,374.2,451.8,370.4z"/>
	<path class="st0" d="M431.9,403.3c-7.5-0.1-6.5,0.7-6.5-7c0-7.2-0.7-6.2,7.4-6.2c7,0,5.9-0.7,5.9,7.6
		C438.7,404,439.2,403.2,431.9,403.3z"/>
</g>
</svg>
