
<svg version="1.1" id="Layer_1" xmlns="http://www.w3.org/2000/svg" xmlns:xlink="http://www.w3.org/1999/xlink" x="0px" y="0px"
	 viewBox="0 0 196.4 196.2" style="enable-background:new 0 0 196.4 196.2;" xml:space="preserve">
<style type="text/css">
	.st0{fill:#FEC116;}
</style>
<g id="XMLID_2_">
	<path id="XMLID_119_" class="st0" d="M0,89.7c0.9-2.3,0.8-4.8,1.2-7.2c3.7-22.2,13.7-41,30.2-56.4C45.5,13,62.2,4.6,81.3,1.5
		c28.2-4.6,54.1,1.5,76.8,19c19.8,15.2,32.3,35.4,36.6,60c5.2,29.7-1.7,56.7-20.9,80.1c-15.3,18.6-35.1,29.8-58.7,34.2
		c-2.8,0.5-5.8,0.5-8.6,1.3c-5.6,0-11.2,0-16.8,0c-0.2-0.4-0.5-0.4-0.9-0.4c-6.7-0.5-13.2-2-19.6-3.8c-1.3-0.4-1.8-0.9-1.5-2.4
		c4.1-21.1,12.6-40,26.5-56.5c10.5-12.5,23.2-22.2,38.2-28.7c0.9-0.4,1.4-0.6,2.3,0.3c5.2,5.3,11.6,7.4,19,6.4
		c11.5-1.5,20.3-13.5,18.2-24.8c-2.1-11.2-11.3-18.8-22.2-18.4c-11.4,0.5-20,8.7-21,20.3c-0.1,1.3-0.7,1.6-1.8,2
		c-42,13.8-73.7,39.7-93.4,79.7c-0.7,1.4-1.1,1.3-2.1,0.4c-4.6-4.4-8.9-9-12.6-14.2c-0.9-1.2-1.2-2.3-1.1-3.8
		c0.5-6.2,1-12.3,2.4-18.4c6-28.1,20.3-51,43.4-68.2c1.2-0.9,1.9-1.2,3.3,0.1c6.8,6.2,14.8,7.9,23.3,4.2c8.2-3.5,12.7-10,13.2-19
		c0.6-11.7-8.8-22-20.1-22.6c-13.1-0.7-23.3,9.6-23.3,21.5c0,1.6-0.5,2.3-2,2.9C34,61.7,15.1,76.9,1.9,98.8c-0.6,1-0.8,2.2-1.9,2.8
		C0,97.7,0,93.7,0,89.7z"/>
</g>
</svg>
