
<svg version="1.1" id="Layer_1" xmlns="http://www.w3.org/2000/svg" xmlns:xlink="http://www.w3.org/1999/xlink" x="0px" y="0px"
	 viewBox="-82 169.9 24 24.5" style="enable-background:new -82 169.9 24 24.5;" xml:space="preserve">
<style type="text/css">
	.st0{fill:none;stroke:#2E3433;stroke-miterlimit:10;}
	.st1{fill:#2E3433;}
</style>
<circle id="XMLID_17_" class="st0" cx="-72.7" cy="178.4" r="7.5"/>
<g id="XMLID_51_">
	<g>
		<path class="st1" d="M-73.6,172.9c-2.3,0.6-4,2.5-4,4.9c0,0.6,1,0.6,1,0c0-2,1.4-3.5,3.3-3.9C-72.7,173.7-73,172.7-73.6,172.9
			L-73.6,172.9z"/>
	</g>
</g>
<path id="XMLID_50_" class="st0" d="M-60.2,190.6l-1,1c-0.4,0.4-1,0.4-1.4,0l-4.4-4.7c-0.4-0.4-0.4-1,0-1.4l1-1c0.4-0.4,1-0.4,1.4,0
	l4.4,4.7C-59.8,189.6-59.8,190.2-60.2,190.6z"/>
</svg>
